{
  "project_info": {
    "project_number": "211582417023",
    "firebase_url": "https://dasturkhan-3e588.firebaseio.com",
    "project_id": "dasturkhan-3e588",
    "storage_bucket": "dasturkhan-3e588.appspot.com"
  },
  "client": [
    {
      "client_info": {
        "mobilesdk_app_id": "1:211582417023:android:dcd16626018a7d8b",
        "android_client_info": {
          "package_name": "uz.N00003988.dasturkhan"
        }
      },
      "oauth_client": [
        {
          "client_id": "211582417023-n71et3vlnbu50umq4v4rb5p2kvaash8v.apps.googleusercontent.com",
          "client_type": 1,
          "android_info": {
            "package_name": "uz.N00003988.dasturkhan",
            "certificate_hash": "166f15bee0e188ed5fe0971e16ed0285710bda10"
          }
        },
        {
          "client_id": "211582417023-rnqva2oe37c3o237306ec7ltl1gcg6u6.apps.googleusercontent.com",
          "client_type": 3
        }
      ],
      "api_key": [
        {
          "current_key": "AIzaSyAIj1Lc8JPA3B3d9svZ0kkJ61vXvA6BEUE"
        }
      ],
      "services": {
        "analytics_service": {
          "status": 1
        },
        "appinvite_service": {
          "status": 2,
          "other_platform_oauth_client": [
            {
              "client_id": "211582417023-rnqva2oe37c3o237306ec7ltl1gcg6u6.apps.googleusercontent.com",
              "client_type": 3
            }
          ]
        },
        "ads_service": {
          "status": 2
        }
      }
    }
  ],
  "configuration_version": "1"
}